{
    "apps": [
        {
            "name": "panally-pre-prod",
            "script": "server.js",
            "merge_logs": true,
            "max_restarts": 20,
            "instances": 1,
            "max_memory_restart": "200M",
        }
    ]
}